﻿{
    "code": "thrownstone",
    "class": "ItemSnowball",
    "variantgroups": [
        {
            "code": "rock",
            "states": [ "snowball" ]
        }
    ],
    "storageFlags": 5,
    "maxstacksize": 64,
    "shape": { "base": "snowball1" },
    "textures": {
        "snowball1": { "base": "snowball1" }
    },
    "attributes": {
        "displaycaseable": true,
        "shelvable": true,
        "ThrownDamage": 5
    },
    "creativeinventory": {
        "general": [ "*" ],
        "items": [ "*" ]
    },
    "guiTransform": {
        "translation": {
            "x": 2,
            "y": 1,
            "z": 0
        },
        "rotation": {
            "x": 150,
            "y": -38,
            "z": 0
        },
        "origin": {
            "x": 0.5,
            "y": 0.1,
            "z": 0.5
        },
        "scale": 2.8
    },
    "fpHandTransform": {
        "translation": {
            "x": 0.05,
            "y": 0.2,
            "z": 0
        },
        "rotation": {
            "x": 94,
            "y": 95,
            "z": -21
        },
        "origin": {
            "x": 0.5,
            "y": 0.1,
            "z": 0.5
        },
        "scale": 1.78
    },
    "tpHandTransform": {
        "translation": {
            "x": -0.9,
            "y": -0.1,
            "z": -0.7
        },
        "rotation": {
            "x": -44,
            "y": 7,
            "z": -9
        },
        "origin": {
            "x": 0.5,
            "y": 0.1,
            "z": 0.5
        },
        "scale": 0.7
    },
    "groundTransform": {
        "translation": {
            "x": 0,
            "y": 0,
            "z": 0
        },
        "rotation": {
            "x": 0,
            "y": 0,
            "z": 0
        },
        "origin": {
            "x": 0.5,
            "y": 0,
            "z": 0.5
        },
        "scale": 4.5
    }
}