{
	"editor": {
		"allAngles": false,
		"entityTextureMode": false
	},
	"textureWidth": 16,
	"textureHeight": 16,
	"textureSizes": {
		"string": [16,16],
		"material": [16,16],
		"handle": [16,16],
		"candycanespear": [32,32]
	},
	"textures": {
		"candycanespear": "/Users/Toby/Desktop/assets/textures/candycanespear"
	},
	"elements": [
		{
			"name": "origin",
			"from": [ 14.0, 0.5, 7.7 ], 
			"to": [ 14.0, 0.5, 7.7 ], 
			"rotationOrigin": [ 8.0, 0.0, 8.0 ],
			"faces": {
				"north": { "texture": "#candycanespear", "uv": [ 0.0, 0.0, 0.5, 0.5 ] },
				"east": { "texture": "#candycanespear", "uv": [ 0.0, 0.0, 0.5, 0.5 ] },
				"south": { "texture": "#candycanespear", "uv": [ 0.0, 0.0, 0.5, 0.5 ] },
				"west": { "texture": "#candycanespear", "uv": [ 0.0, 0.0, 0.5, 0.5 ] },
				"up": { "texture": "#candycanespear", "uv": [ 0.0, 0.0, 0.5, 0.5 ] },
				"down": { "texture": "#candycanespear", "uv": [ 0.0, 0.0, 0.5, 0.5 ] }
			},
			"children": [
				{
					"name": "handle",
					"from": [ -8.0, -0.5, -0.5 ], 
					"to": [ 8.0, 1.0, 1.0 ], 
					"rotationOrigin": [ -9.5, -8.0, 0.0 ],
					"faces": {
						"north": { "texture": "#candycanespear", "uv": [ 2.5, 5.5, 4.0, 21.5 ], "rotation": 90 },
						"east": { "texture": "#candycanespear", "uv": [ 4.0, 8.5, 5.5, 10.0 ] },
						"south": { "texture": "#candycanespear", "uv": [ 3.0, 10.5, 4.5, 26.5 ], "rotation": 90 },
						"west": { "texture": "#candycanespear", "uv": [ 3.5, 13.0, 5.0, 14.5 ] },
						"up": { "texture": "#candycanespear", "uv": [ 4.0, 4.5, 5.5, 20.5 ], "rotation": 90 },
						"down": { "texture": "#candycanespear", "uv": [ 1.5, 2.5, 3.0, 18.5 ], "rotation": 90 }
					},
					"children": [
						{
							"name": "Cube24",
							"from": [ 16.0, 1.0, 0.5 ], 
							"to": [ 18.0, 1.5, 1.0 ], 
							"rotationOrigin": [ 16.0, 1.0, 0.5 ],
							"faces": {
								"north": { "texture": "#candycanespear", "uv": [ 12.5, 8.5, 14.5, 9.0 ] },
								"east": { "texture": "#candycanespear", "uv": [ 14.5, 6.0, 15.0, 6.5 ] },
								"south": { "texture": "#candycanespear", "uv": [ 2.5, 4.5, 4.5, 5.0 ] },
								"west": { "texture": "#candycanespear", "uv": [ 0.0, 0.0, 0.5, 0.5 ] },
								"up": { "texture": "#candycanespear", "uv": [ 3.0, 6.5, 5.0, 7.0 ] },
								"down": { "texture": "#candycanespear", "uv": [ 0.0, 0.0, 2.0, 0.5 ] }
							}
						},
						{
							"name": "Cube31",
							"from": [ 16.0, 1.0, 0.0 ], 
							"to": [ 17.0, 1.5, 0.5 ], 
							"rotationOrigin": [ 16.0, 1.0, 0.0 ],
							"faces": {
								"north": { "texture": "#candycanespear", "uv": [ 11.0, 8.0, 12.0, 8.5 ] },
								"east": { "texture": "#candycanespear", "uv": [ 3.0, 4.0, 3.5, 4.5 ] },
								"south": { "texture": "#candycanespear", "uv": [ 1.0, 8.0, 2.0, 8.5 ] },
								"west": { "texture": "#candycanespear", "uv": [ 0.0, 0.0, 0.5, 0.5 ] },
								"up": { "texture": "#candycanespear", "uv": [ 6.0, 5.5, 7.0, 6.0 ] },
								"down": { "texture": "#candycanespear", "uv": [ 0.0, 0.0, 1.0, 0.5 ] }
							}
						},
						{
							"name": "Cube32",
							"from": [ 16.0, 0.0, 0.5 ], 
							"to": [ 18.0, 0.5, 1.5 ], 
							"rotationOrigin": [ 16.0, 0.0, 0.5 ],
							"faces": {
								"north": { "texture": "#candycanespear", "uv": [ 2.0, 11.0, 4.0, 11.5 ] },
								"east": { "texture": "#candycanespear", "uv": [ 2.5, 14.0, 3.5, 14.5 ] },
								"south": { "texture": "#candycanespear", "uv": [ 3.5, 15.0, 5.5, 15.5 ] },
								"west": { "texture": "#candycanespear", "uv": [ 5.5, 9.0, 6.5, 9.5 ] },
								"up": { "texture": "#candycanespear", "uv": [ 3.0, 14.5, 5.0, 15.5 ] },
								"down": { "texture": "#candycanespear", "uv": [ 4.0, 11.0, 6.0, 12.0 ] }
							}
						}
					]
				},
				{
					"name": "string 2",
					"from": [ -18.7, -0.7, -1.5 ], 
					"to": [ -18.2, 1.3, 1.5 ], 
					"rotationOrigin": [ -18.7, -0.7, 0.0 ],
					"rotationY": -52.0,
					"faces": {
						"north": { "texture": "#candycanespear", "uv": [ 29.0, 2.5, 29.5, 4.5 ] },
						"east": { "texture": "#candycanespear", "uv": [ 28.5, 2.0, 30.5, 5.0 ], "rotation": 90 },
						"south": { "texture": "#candycanespear", "uv": [ 28.5, 1.5, 29.0, 3.5 ] },
						"west": { "texture": "#candycanespear", "uv": [ 28.5, 2.0, 30.5, 5.0 ], "rotation": 90 },
						"up": { "texture": "#candycanespear", "uv": [ 28.5, 3.5, 29.0, 6.5 ] },
						"down": { "texture": "#candycanespear", "uv": [ 28.5, 3.5, 29.0, 6.5 ] }
					}
				},
				{
					"name": "handle 2",
					"from": [ -22.0, -0.5, -0.5 ], 
					"to": [ -8.0, 1.0, 1.0 ], 
					"rotationOrigin": [ -23.5, -8.0, 0.0 ],
					"faces": {
						"north": { "texture": "#candycanespear", "uv": [ 10.0, 18.0, 11.5, 32.0 ], "rotation": 90 },
						"east": { "texture": "#candycanespear", "uv": [ 5.0, 13.0, 6.5, 14.5 ] },
						"south": { "texture": "#candycanespear", "uv": [ 8.0, 16.0, 9.5, 30.0 ], "rotation": 90 },
						"west": { "texture": "#candycanespear", "uv": [ 5.0, 13.5, 6.5, 15.0 ] },
						"up": { "texture": "#candycanespear", "uv": [ 8.0, 18.0, 9.5, 32.0 ], "rotation": 90 },
						"down": { "texture": "#candycanespear", "uv": [ 12.0, 18.0, 13.5, 32.0 ], "rotation": 90 }
					},
					"children": [
						{
							"name": "Cube1",
							"from": [ -1.0, -0.01, -1.0 ], 
							"to": [ 1.6, 1.99, 1.0 ], 
							"rotationOrigin": [ -1.0, 1.0, -1.0 ],
							"rotationY": -22.5,
							"faces": {
								"north": { "texture": "#candycanespear", "uv": [ 8.5, 23.5, 11.0, 25.5 ] },
								"east": { "texture": "#candycanespear", "uv": [ 0.5, 23.0, 2.5, 25.0 ] },
								"south": { "texture": "#candycanespear", "uv": [ 9.0, 22.0, 11.5, 24.0 ] },
								"west": { "texture": "#candycanespear", "uv": [ 5.0, 22.0, 7.0, 24.0 ] },
								"up": { "texture": "#candycanespear", "uv": [ 7.5, 23.5, 10.0, 25.5 ] },
								"down": { "texture": "#candycanespear", "uv": [ 11.5, 25.0, 14.0, 27.0 ] }
							}
						},
						{
							"name": "Cube12",
							"from": [ -2.4, 0.01, -2.4 ], 
							"to": [ 0.3, 1.92, -0.6 ], 
							"rotationOrigin": [ -2.4, 0.0, -2.4 ],
							"rotationY": -45.0,
							"faces": {
								"north": { "texture": "#candycanespear", "uv": [ 9.0, 23.5, 10.5, 26.0 ], "rotation": 90 },
								"east": { "texture": "#candycanespear", "uv": [ 1.0, 14.5, 2.5, 16.0 ] },
								"south": { "texture": "#candycanespear", "uv": [ 12.5, 22.0, 15.0, 23.5 ] },
								"west": { "texture": "#candycanespear", "uv": [ 9.0, 24.5, 10.5, 26.0 ] },
								"up": { "texture": "#candycanespear", "uv": [ 10.5, 22.5, 12.0, 25.0 ], "rotation": 90 },
								"down": { "texture": "#candycanespear", "uv": [ 9.5, 20.5, 11.0, 23.0 ], "rotation": 90 }
							}
						},
						{
							"name": "Cube13",
							"from": [ -2.0, 0.0, -3.9 ], 
							"to": [ 0.7, 1.8, -2.3 ], 
							"rotationOrigin": [ -2.0, 0.0, -3.9 ],
							"rotationY": -90.0,
							"faces": {
								"north": { "texture": "#candycanespear", "uv": [ 8.5, 23.5, 10.0, 26.0 ], "rotation": 270 },
								"east": { "texture": "#candycanespear", "uv": [ 0.0, 9.5, 1.5, 11.0 ] },
								"south": { "texture": "#candycanespear", "uv": [ 9.0, 27.0, 11.5, 28.5 ] },
								"west": { "texture": "#candycanespear", "uv": [ 4.0, 22.0, 5.5, 23.5 ] },
								"up": { "texture": "#candycanespear", "uv": [ 9.0, 21.0, 10.5, 23.5 ], "rotation": 90 },
								"down": { "texture": "#candycanespear", "uv": [ 13.0, 23.5, 14.5, 26.0 ], "rotation": 90 }
							}
						},
						{
							"name": "Cube14",
							"from": [ -0.5, 0.09, -4.7 ], 
							"to": [ 2.2, 1.7, -3.1 ], 
							"rotationOrigin": [ -0.5, 0.1, -4.7 ],
							"rotationY": -135.0,
							"faces": {
								"north": { "texture": "#candycanespear", "uv": [ 13.0, 24.0, 15.5, 25.5 ] },
								"east": { "texture": "#candycanespear", "uv": [ 1.0, 22.5, 2.5, 24.0 ] },
								"south": { "texture": "#candycanespear", "uv": [ 10.0, 24.5, 11.5, 27.0 ], "rotation": 90 },
								"west": { "texture": "#candycanespear", "uv": [ 6.0, 19.0, 7.5, 20.5 ] },
								"up": { "texture": "#candycanespear", "uv": [ 7.5, 23.0, 10.0, 24.5 ] },
								"down": { "texture": "#candycanespear", "uv": [ 11.0, 24.0, 12.5, 26.5 ], "rotation": 90 }
							}
						},
						{
							"name": "Cube15",
							"from": [ 1.7, 0.1, -4.4 ], 
							"to": [ 5.1, 1.4, -2.9 ], 
							"rotationOrigin": [ 1.7, 0.1, -4.4 ],
							"rotationY": -180.0,
							"faces": {
								"north": { "texture": "#candycanespear", "uv": [ 9.5, 29.5, 12.5, 30.5 ], "rotation": 180 },
								"east": { "texture": "#candycanespear", "uv": [ 4.5, 9.0, 6.0, 10.0 ] },
								"south": { "texture": "#candycanespear", "uv": [ 12.5, 22.0, 13.5, 25.0 ], "rotation": 90 },
								"west": { "texture": "#candycanespear", "uv": [ 2.0, 15.5, 3.5, 16.5 ] },
								"up": { "texture": "#candycanespear", "uv": [ 6.5, 28.0, 9.5, 29.5 ] },
								"down": { "texture": "#candycanespear", "uv": [ 8.0, 27.5, 9.5, 30.5 ], "rotation": 90 }
							}
						}
					]
				},
				{
					"name": "segment main11",
					"from": [ 8.0, 0.0, 0.0 ], 
					"to": [ 12.0, 0.5, 0.5 ], 
					"rotationOrigin": [ 8.0, 0.0, 0.0 ],
					"rotationY": -12.0,
					"faces": {
						"north": { "texture": "#candycanespear", "uv": [ 1.0, 11.0, 5.0, 11.5 ] },
						"east": { "texture": "#candycanespear", "uv": [ 2.5, 10.5, 3.0, 11.0 ] },
						"south": { "texture": "#candycanespear", "uv": [ 2.5, 17.0, 6.5, 17.5 ] },
						"west": { "texture": "#candycanespear", "uv": [ 4.5, 16.0, 5.0, 16.5 ] },
						"up": { "texture": "#candycanespear", "uv": [ 2.0, 12.5, 2.5, 16.5 ], "rotation": 90 },
						"down": { "texture": "#candycanespear", "uv": [ 1.5, 10.0, 5.5, 10.5 ] }
					}
				},
				{
					"name": "string 26",
					"from": [ -17.7, -0.8, -0.7 ], 
					"to": [ -17.2, 1.2, 1.3 ], 
					"rotationOrigin": [ -17.7, -0.8, 0.8 ],
					"rotationY": 6.0,
					"rotationZ": 2.0,
					"faces": {
						"north": { "texture": "#candycanespear", "uv": [ 2.5, 9.5, 4.5, 10.0 ], "rotation": 90 },
						"east": { "texture": "#candycanespear", "uv": [ 1.5, 7.5, 3.5, 9.5 ] },
						"south": { "texture": "#candycanespear", "uv": [ 4.0, 9.0, 6.0, 9.5 ], "rotation": 90 },
						"west": { "texture": "#candycanespear", "uv": [ 3.0, 7.0, 5.0, 9.0 ] },
						"up": { "texture": "#candycanespear", "uv": [ 3.0, 5.0, 5.0, 5.5 ], "rotation": 90 },
						"down": { "texture": "#candycanespear", "uv": [ 3.5, 3.0, 5.5, 3.5 ], "rotation": 90 }
					}
				},
				{
					"name": "string 27",
					"from": [ -18.1, -0.8, -0.8 ], 
					"to": [ -17.6, 1.2, 1.2 ], 
					"rotationOrigin": [ -18.1, -0.8, 0.7 ],
					"rotationX": 0.9999997998811924,
					"rotationZ": 19.0,
					"faces": {
						"north": { "texture": "#candycanespear", "uv": [ 29.5, 2.5, 30.0, 4.5 ] },
						"east": { "texture": "#candycanespear", "uv": [ 28.0, 4.0, 30.0, 6.0 ] },
						"south": { "texture": "#candycanespear", "uv": [ 29.5, 4.5, 30.0, 6.5 ] },
						"west": { "texture": "#candycanespear", "uv": [ 28.5, 4.0, 30.5, 6.0 ] },
						"up": { "texture": "#candycanespear", "uv": [ 29.0, 5.0, 29.5, 7.0 ] },
						"down": { "texture": "#candycanespear", "uv": [ 28.0, 2.5, 28.5, 4.5 ] }
					},
					"children": [
						{
							"name": "Face",
							"from": [ 0.0, -1.8, -0.2 ], 
							"to": [ 2.1, 2.1, -0.19 ], 
							"rotationOrigin": [ 0.0, -1.8, -0.2 ],
							"rotationX": 3.0,
							"faces": {
								"north": { "texture": "#candycanespear", "uv": [ 28.5, 5.5, 30.5, 9.0 ] },
								"east": { "texture": "#null", "uv": [ 0.0, 0.0, 0.5, 3.5 ], "enabled": false },
								"south": { "texture": "#candycanespear", "uv": [ 28.5, 5.5, 30.5, 9.0 ] },
								"west": { "texture": "#null", "uv": [ 0.0, 0.0, 0.5, 3.5 ], "enabled": false },
								"up": { "texture": "#null", "uv": [ 0.0, 0.0, 2.0, 0.5 ], "enabled": false },
								"down": { "texture": "#null", "uv": [ 0.0, 0.0, 2.0, 0.5 ], "enabled": false }
							}
						},
						{
							"name": "Face17",
							"from": [ 0.0, -1.8, 2.3 ], 
							"to": [ 2.1, 2.1, 2.31 ], 
							"rotationOrigin": [ 0.0, -1.8, 2.3 ],
							"rotationX": -3.0,
							"faces": {
								"north": { "texture": "#candycanespear", "uv": [ 28.5, 3.5, 30.5, 7.0 ] },
								"east": { "texture": "#null", "uv": [ 0.0, 0.0, 0.5, 3.5 ], "enabled": false },
								"south": { "texture": "#candycanespear", "uv": [ 27.5, 4.0, 29.5, 7.5 ] },
								"west": { "texture": "#null", "uv": [ 0.0, 0.0, 0.5, 3.5 ], "enabled": false },
								"up": { "texture": "#null", "uv": [ 0.0, 0.0, 2.0, 0.5 ], "enabled": false },
								"down": { "texture": "#null", "uv": [ 0.0, 0.0, 2.0, 0.5 ], "enabled": false }
							}
						},
						{
							"name": "Face18",
							"from": [ -0.1, 2.2, -0.7 ], 
							"to": [ 2.0, 6.1, -0.69 ], 
							"rotationOrigin": [ -0.1, 2.2, -0.7 ],
							"rotationX": 90.0,
							"faces": {
								"north": { "texture": "#candycanespear", "uv": [ 28.0, 4.0, 30.0, 7.5 ] },
								"east": { "texture": "#null", "uv": [ 0.0, 0.0, 0.5, 3.5 ], "enabled": false },
								"south": { "texture": "#candycanespear", "uv": [ 28.0, 4.0, 30.0, 7.5 ] },
								"west": { "texture": "#null", "uv": [ 0.0, 0.0, 0.5, 3.5 ], "enabled": false },
								"up": { "texture": "#null", "uv": [ 0.0, 0.0, 2.0, 0.5 ], "enabled": false },
								"down": { "texture": "#null", "uv": [ 0.0, 0.0, 2.0, 0.5 ], "enabled": false }
							}
						},
						{
							"name": "Face19",
							"from": [ -0.6, 3.6, -2.9 ], 
							"to": [ 2.8, 7.5, -2.9 ], 
							"rotationOrigin": [ -0.6, 3.6, -2.9 ],
							"rotationX": 112.5,
							"faces": {
								"north": { "texture": "#candycanespear", "uv": [ 27.5, 8.5, 30.5, 12.0 ] },
								"east": { "texture": "#null", "uv": [ 0.0, 0.0, 0.5, 3.5 ], "enabled": false },
								"south": { "texture": "#candycanespear", "uv": [ 27.5, 8.5, 30.5, 12.0 ] },
								"west": { "texture": "#null", "uv": [ 0.0, 0.0, 0.5, 3.5 ], "enabled": false },
								"up": { "texture": "#null", "uv": [ 0.0, 0.0, 3.0, 0.5 ], "enabled": false },
								"down": { "texture": "#null", "uv": [ 0.0, 0.0, 3.0, 0.5 ], "enabled": false }
							}
						},
						{
							"name": "Face20",
							"from": [ -0.6, 3.5, 5.1 ], 
							"to": [ 2.8, 7.4, 5.1 ], 
							"rotationOrigin": [ -0.6, 3.5, 5.1 ],
							"rotationX": -112.5,
							"faces": {
								"north": { "texture": "#candycanespear", "uv": [ 27.5, 8.5, 30.5, 12.0 ] },
								"east": { "texture": "#null", "uv": [ 0.0, 0.0, 0.5, 3.5 ], "enabled": false },
								"south": { "texture": "#candycanespear", "uv": [ 28.0, 9.0, 31.0, 12.5 ] },
								"west": { "texture": "#null", "uv": [ 0.0, 0.0, 0.5, 3.5 ], "enabled": false },
								"up": { "texture": "#null", "uv": [ 0.0, 0.0, 3.0, 0.5 ], "enabled": false },
								"down": { "texture": "#null", "uv": [ 0.0, 0.0, 3.0, 0.5 ], "enabled": false }
							}
						}
					]
				},
				{
					"name": "segment main21",
					"from": [ 8.0, 0.0, 0.0 ], 
					"to": [ 12.0, 0.5, 0.5 ], 
					"rotationOrigin": [ 8.0, 0.0, 0.0 ],
					"rotationY": 12.0,
					"faces": {
						"north": { "texture": "#candycanespear", "uv": [ 1.0, 11.0, 5.0, 11.5 ] },
						"east": { "texture": "#candycanespear", "uv": [ 2.5, 10.5, 3.0, 11.0 ] },
						"south": { "texture": "#candycanespear", "uv": [ 2.5, 17.0, 6.5, 17.5 ] },
						"west": { "texture": "#candycanespear", "uv": [ 4.5, 16.0, 5.0, 16.5 ] },
						"up": { "texture": "#candycanespear", "uv": [ 2.0, 12.5, 2.5, 16.5 ], "rotation": 90 },
						"down": { "texture": "#candycanespear", "uv": [ 1.5, 10.0, 5.5, 10.5 ] }
					}
				},
				{
					"name": "segment main22",
					"from": [ 8.0, 0.0, 0.0 ], 
					"to": [ 12.0, 0.5, 0.5 ], 
					"rotationOrigin": [ 8.0, 0.0, 0.0 ],
					"rotationZ": 12.0,
					"faces": {
						"north": { "texture": "#candycanespear", "uv": [ 1.0, 11.0, 5.0, 11.5 ] },
						"east": { "texture": "#candycanespear", "uv": [ 2.5, 10.5, 3.0, 11.0 ] },
						"south": { "texture": "#candycanespear", "uv": [ 2.5, 17.0, 6.5, 17.5 ] },
						"west": { "texture": "#candycanespear", "uv": [ 4.5, 16.0, 5.0, 16.5 ] },
						"up": { "texture": "#candycanespear", "uv": [ 2.0, 12.5, 2.5, 16.5 ], "rotation": 90 },
						"down": { "texture": "#candycanespear", "uv": [ 1.5, 10.0, 5.5, 10.5 ] }
					}
				},
				{
					"name": "segment main23",
					"from": [ 8.0, 0.0, 0.0 ], 
					"to": [ 13.3, 0.5, 0.5 ], 
					"rotationOrigin": [ 8.0, 0.0, 0.0 ],
					"rotationZ": -2.0,
					"faces": {
						"north": { "texture": "#candycanespear", "uv": [ 1.0, 11.0, 6.0, 11.5 ] },
						"east": { "texture": "#candycanespear", "uv": [ 2.5, 10.5, 3.0, 11.0 ] },
						"south": { "texture": "#candycanespear", "uv": [ 2.5, 17.0, 7.5, 17.5 ] },
						"west": { "texture": "#candycanespear", "uv": [ 4.5, 16.0, 5.0, 16.5 ] },
						"up": { "texture": "#candycanespear", "uv": [ 2.0, 12.5, 2.5, 17.5 ], "rotation": 90 },
						"down": { "texture": "#candycanespear", "uv": [ 1.5, 10.0, 6.5, 10.5 ] }
					},
					"children": [
						{
							"name": "Cube25",
							"from": [ 1.3, -0.3, -0.7 ], 
							"to": [ 1.8, 1.3, 1.2 ], 
							"rotationOrigin": [ 1.3, -0.3, -0.7 ],
							"faces": {
								"north": { "texture": "#candycanespear", "uv": [ 0.0, 0.0, 0.5, 1.5 ] },
								"east": { "texture": "#candycanespear", "uv": [ 0.0, 0.0, 1.5, 1.5 ] },
								"south": { "texture": "#candycanespear", "uv": [ 0.0, 0.0, 0.5, 1.5 ] },
								"west": { "texture": "#candycanespear", "uv": [ 0.0, 0.0, 1.5, 1.5 ] },
								"up": { "texture": "#candycanespear", "uv": [ 0.0, 0.0, 0.5, 1.5 ] },
								"down": { "texture": "#candycanespear", "uv": [ 0.0, 0.0, 0.5, 1.5 ] }
							}
						}
					]
				}
			]
		}
	]}