{
	"editor": {
		"allAngles": false,
		"entityTextureMode": false
	},
	"textureWidth": 32,
	"textureHeight": 32,
	"textureSizes": {
	},
	"textures": {
		"snowball1": "/Users/Toby/Desktop/assets/textures/snowball1"
	},
	"elements": [
		{
			"name": "origin",
			"from": [ 9.0, 0.0, 7.05 ], 
			"to": [ 9.75, 0.75, 7.8 ], 
			"rotationOrigin": [ 9.0, 0.0, 7.05 ],
			"faces": {
				"north": { "texture": "#snowball1", "uv": [ 0.0, 0.0, 0.5, 0.5 ], "enabled": true },
				"east": { "texture": "#snowball1", "uv": [ 0.0, 0.0, 0.5, 0.5 ], "enabled": true },
				"south": { "texture": "#snowball1", "uv": [ 0.5, 0.0, 1.0, 0.5 ], "enabled": true },
				"west": { "texture": "#snowball1", "uv": [ 0.0, 0.0, 0.5, 0.5 ], "enabled": true },
				"up": { "texture": "#snowball1", "uv": [ 0.0, 0.0, 0.5, 0.5 ], "enabled": true },
				"down": { "texture": "#snowball1", "uv": [ 0.0, 0.0, 0.5, 0.5 ], "enabled": true }
			},
			"children": [
				{
					"name": "Cube7",
					"from": [ -4.773, 4.5, 0.2197 ], 
					"to": [ -0.273, 5.25, 4.7197 ], 
					"rotationOrigin": [ -4.773, 4.5, 0.2197 ],
					"rotationY": 44.99999171897202,
					"faces": {
						"north": { "texture": "#snowball1", "uv": [ 19.0, 4.5, 25.0, 5.5 ] },
						"east": { "texture": "#snowball1", "uv": [ 20.0, 8.5, 26.0, 9.5 ] },
						"south": { "texture": "#snowball1", "uv": [ 24.0, 7.0, 30.0, 8.0 ] },
						"west": { "texture": "#snowball1", "uv": [ 21.0, 8.0, 27.0, 9.0 ] },
						"up": { "texture": "#snowball1", "uv": [ 20.5, 4.0, 26.5, 10.0 ] },
						"down": { "texture": "#snowball1", "uv": [ 20.0, 7.0, 26.0, 13.0 ], "enabled": false }
					}
				},
				{
					"name": "Cube6",
					"from": [ -5.22, 3.75, 0.5175 ], 
					"to": [ 0.48, 4.5, 5.5425 ], 
					"rotationOrigin": [ -5.223, 3.75, 0.5197 ],
					"rotationY": 44.99999171897202,
					"faces": {
						"north": { "texture": "#snowball1", "uv": [ 19.5, 3.0, 27.0, 4.0 ] },
						"east": { "texture": "#snowball1", "uv": [ 24.0, 13.5, 30.5, 14.5 ] },
						"south": { "texture": "#snowball1", "uv": [ 24.0, 8.5, 31.5, 9.5 ] },
						"west": { "texture": "#snowball1", "uv": [ 21.5, 6.5, 28.0, 7.5 ] },
						"up": { "texture": "#snowball1", "uv": [ 23.5, 6.5, 31.0, 13.0 ] },
						"down": { "texture": "#snowball1", "uv": [ 21.0, 2.5, 28.5, 9.0 ], "enabled": false }
					}
				},
				{
					"name": "Cube5",
					"from": [ -5.595, 3.075, 0.5175 ], 
					"to": [ 0.705, 3.825, 6.0675 ], 
					"rotationOrigin": [ -5.598, 3.075, 0.5197 ],
					"rotationY": 44.99999171897202,
					"faces": {
						"north": { "texture": "#snowball1", "uv": [ 20.5, 11.0, 28.5, 12.0 ] },
						"east": { "texture": "#snowball1", "uv": [ 23.0, 6.0, 30.0, 7.0 ] },
						"south": { "texture": "#snowball1", "uv": [ 17.0, 3.5, 25.0, 4.5 ] },
						"west": { "texture": "#snowball1", "uv": [ 22.5, 6.5, 29.5, 7.5 ] },
						"up": { "texture": "#snowball1", "uv": [ 21.0, 4.0, 29.0, 11.0 ] },
						"down": { "texture": "#snowball1", "uv": [ 18.0, 5.0, 26.0, 12.0 ], "enabled": false }
					}
				},
				{
					"name": "Cube4",
					"from": [ -5.895, 1.575, 0.5175 ], 
					"to": [ 0.855, 3.225, 6.3675 ], 
					"rotationOrigin": [ -5.898, 1.575, 0.5197 ],
					"rotationY": 44.99999171897202,
					"faces": {
						"north": { "texture": "#snowball1", "uv": [ 22.0, 5.0, 31.0, 7.0 ] },
						"east": { "texture": "#snowball1", "uv": [ 22.0, 9.5, 29.5, 11.5 ] },
						"south": { "texture": "#snowball1", "uv": [ 20.0, 6.5, 29.0, 8.5 ] },
						"west": { "texture": "#snowball1", "uv": [ 20.5, 6.5, 28.0, 8.5 ] },
						"up": { "texture": "#snowball1", "uv": [ 19.0, 2.5, 28.0, 10.0 ] },
						"down": { "texture": "#snowball1", "uv": [ 21.0, 4.0, 30.0, 11.5 ] }
					}
				},
				{
					"name": "Cube3",
					"from": [ -5.52, 0.75, 0.5175 ], 
					"to": [ 0.705, 1.65, 5.7675 ], 
					"rotationOrigin": [ -5.523, 0.75, 0.5197 ],
					"rotationY": 44.99999171897202,
					"faces": {
						"north": { "texture": "#snowball1", "uv": [ 17.0, 6.5, 25.0, 7.5 ] },
						"east": { "texture": "#snowball1", "uv": [ 20.5, 6.5, 27.5, 7.5 ] },
						"south": { "texture": "#snowball1", "uv": [ 21.0, 8.5, 29.0, 9.5 ] },
						"west": { "texture": "#snowball1", "uv": [ 23.0, 4.0, 30.0, 5.0 ] },
						"up": { "texture": "#snowball1", "uv": [ 18.0, 1.0, 26.0, 8.0 ], "enabled": false },
						"down": { "texture": "#snowball1", "uv": [ 23.5, 4.0, 31.5, 11.0 ] }
					}
				},
				{
					"name": "Cube1",
					"from": [ -4.773, 0.0, 0.2197 ], 
					"to": [ -0.273, 0.75, 4.7197 ], 
					"rotationOrigin": [ -4.773, 0.0, 0.2197 ],
					"rotationY": 44.99999171897202,
					"faces": {
						"north": { "texture": "#snowball1", "uv": [ 20.5, 7.0, 26.5, 8.0 ] },
						"east": { "texture": "#snowball1", "uv": [ 19.5, 6.0, 25.5, 7.0 ] },
						"south": { "texture": "#snowball1", "uv": [ 18.5, 5.5, 24.5, 6.5 ] },
						"west": { "texture": "#snowball1", "uv": [ 23.0, 7.0, 29.0, 8.0 ] },
						"up": { "texture": "#snowball1", "uv": [ 20.5, 4.0, 26.5, 10.0 ], "enabled": false },
						"down": { "texture": "#snowball1", "uv": [ 18.5, 6.0, 24.5, 12.0 ] }
					},
					"children": [
						{
							"name": "Cube",
							"from": [ 0.5325, 1.5, 0.48 ], 
							"to": [ 4.2825, 3.0, 3.48 ], 
							"rotationOrigin": [ 0.0, 7.5, 5.25 ],
							"rotationY": 3.415094397496434E-6,
							"rotationZ": 22.5,
							"faces": {
								"north": { "texture": "#snowball1", "uv": [ 5.0, 3.0, 10.0, 5.0 ] },
								"east": { "texture": "#snowball1", "uv": [ 6.5, 5.0, 10.5, 7.0 ] },
								"south": { "texture": "#snowball1", "uv": [ 3.5, 7.0, 8.5, 9.0 ] },
								"west": { "texture": "#snowball1", "uv": [ 6.0, 2.0, 10.0, 4.0 ] },
								"up": { "texture": "#snowball1", "uv": [ 6.5, 4.0, 11.5, 8.0 ] },
								"down": { "texture": "#snowball1", "uv": [ 4.5, 6.0, 9.5, 10.0 ] }
							}
						}
					]
				}
			]
		}
	]}